%YAML 1.1
%TAG !u! tag:unity3d.com,2011:
--- !u!74 &7400000
AnimationClip:
  m_ObjectHideFlags: 0
  m_CorrespondingSourceObject: {fileID: 0}
  m_PrefabInstance: {fileID: 0}
  m_PrefabAsset: {fileID: 0}
  m_Name: BunnyJump
  serializedVersion: 6
  m_Legacy: 0
  m_Compressed: 0
  m_UseHighQualityCurve: 1
  m_RotationCurves: []
  m_CompressedRotationCurves: []
  m_EulerCurves: []
  m_PositionCurves: []
  m_ScaleCurves: []
  m_FloatCurves: []
  m_PPtrCurves:
  - curve:
    - time: 0
      value: {fileID: 21300000, guid: e6b01350fe18176438c776f62f332235, type: 2}
    - time: 0.041666668
      value: {fileID: 21300000, guid: 4f9ebc5d3e75e6948a4a192ca8c98131, type: 2}
    - time: 0.083333336
      value: {fileID: 21300000, guid: 3295083a4fa3cbc429c5a7a44c3d32cd, type: 2}
    - time: 0.125
      value: {fileID: 21300000, guid: 1ea57d90d958f7248b59a6a3cf44e141, type: 2}
    - time: 0.16666667
      value: {fileID: 21300000, guid: c20c561614e94784f98342e857c32698, type: 2}
    - time: 0.20833333
      value: {fileID: 21300000, guid: b4aa328d6297fe7499c6d9066c1b9c1a, type: 2}
    - time: 0.25
      value: {fileID: 21300000, guid: 2a408da02aad0e647b970a7d54451753, type: 2}
    - time: 0.29166666
      value: {fileID: 21300000, guid: e8b2bd73d7a3020498cba2df4e26aad9, type: 2}
    - time: 0.33333334
      value: {fileID: 21300000, guid: 0851b185146b5d84ea913422a0bbc455, type: 2}
    - time: 0.375
      value: {fileID: 21300000, guid: c726da637d250db429e563add006a6ea, type: 2}
    attribute: m_Sprite
    path: 
    classID: 212
    script: {fileID: 0}
  m_SampleRate: 24
  m_WrapMode: 0
  m_Bounds:
    m_Center: {x: 0, y: 0, z: 0}
    m_Extent: {x: 0, y: 0, z: 0}
  m_ClipBindingConstant:
    genericBindings:
    - serializedVersion: 2
      path: 0
      attribute: 0
      script: {fileID: 0}
      typeID: 212
      customType: 23
      isPPtrCurve: 1
    pptrCurveMapping:
    - {fileID: 21300000, guid: e6b01350fe18176438c776f62f332235, type: 2}
    - {fileID: 21300000, guid: 4f9ebc5d3e75e6948a4a192ca8c98131, type: 2}
    - {fileID: 21300000, guid: 3295083a4fa3cbc429c5a7a44c3d32cd, type: 2}
    - {fileID: 21300000, guid: 1ea57d90d958f7248b59a6a3cf44e141, type: 2}
    - {fileID: 21300000, guid: c20c561614e94784f98342e857c32698, type: 2}
    - {fileID: 21300000, guid: b4aa328d6297fe7499c6d9066c1b9c1a, type: 2}
    - {fileID: 21300000, guid: 2a408da02aad0e647b970a7d54451753, type: 2}
    - {fileID: 21300000, guid: e8b2bd73d7a3020498cba2df4e26aad9, type: 2}
    - {fileID: 21300000, guid: 0851b185146b5d84ea913422a0bbc455, type: 2}
    - {fileID: 21300000, guid: c726da637d250db429e563add006a6ea, type: 2}
  m_AnimationClipSettings:
    serializedVersion: 2
    m_AdditiveReferencePoseClip: {fileID: 0}
    m_AdditiveReferencePoseTime: 0
    m_StartTime: 0
    m_StopTime: 0.41666666
    m_OrientationOffsetY: 0
    m_Level: 0
    m_CycleOffset: 0
    m_HasAdditiveReferencePose: 0
    m_LoopTime: 0
    m_LoopBlend: 0
    m_LoopBlendOrientation: 0
    m_LoopBlendPositionY: 0
    m_LoopBlendPositionXZ: 0
    m_KeepOriginalOrientation: 0
    m_KeepOriginalPositionY: 1
    m_KeepOriginalPositionXZ: 0
    m_HeightFromFeet: 0
    m_Mirror: 0
  m_EditorCurves: []
  m_EulerEditorCurves: []
  m_HasGenericRootTransform: 0
  m_HasMotionFloatCurves: 0
  m_Events: []
